{
  "reviews": [
    {
      "id": 175285,
      "user_id": 513767,
      "review": "Ένα από τα καλύτερα κινητά που έχει περάσει από τα χέρια μου... αξίζει τρομερά για τα λεφτά του και ακριβώς επειδή είναι συνέχεια με το κινητό στο χέρι και 100αδες εφαρμογές που λέει ο λόγος να τρέχουν λέω με μεγάλη σιγουριά ότι δύσκολα θα κολλήσει!!",
      "rating": 5,
      "created_at": "2017-05-11T01:38:20+03:00",
      "demoted": false,
      "votes_count": 1,
      "helpful_votes_count": 0,
      "sentiments": {
        "positive": [
          "Ποιότητα κλήσης",
          "Φωτογραφίες",
          "Καταγραφή Video",
          "Μουσική",
          "Ταχύτητα",
          "Σχέση ποιότητας τιμής",
          "Ανάλυση οθόνης"
        ],
        "mediocre": [
          "GPS"
        ]
      }
    },
    {
      "id": 175119,
      "user_id": 356519,
      "review": "Πολύ καλό για τα λεφτά του πολύ γρήγορο και πολύ καλύτερο από την παλιά έκδοση και έχει και πλαίσιο αλουμινίου σ αυτά τα λεφτά δεν υπάρχει καλύτερο",
      "rating": 5,
      "created_at": "2017-05-10T12:27:33+03:00",
      "demoted": false,
      "votes_count": 0,
      "helpful_votes_count": 0,
      "sentiments": {
        "positive": [
          "Ποιότητα κλήσης",
          "Φωτογραφίες",
          "Καταγραφή Video",
          "Μουσική",
          "GPS",
          "Ταχύτητα",
          "Σχέση ποιότητας τιμής",
          "Ανάλυση οθόνης"
        ]
      }
    },
    {
      "id": 174140,
      "user_id": 207352,
      "review": "Είναι πολύ καλό για τα λεφτά του το πήρα πριν 3 μήνες και είμαι αρκετά ευχαριστημένος. Μην το φορτώνεις με πολλά apps απλώς γιατί κολλάει λίγο. Από μπαταρία η διάρκεια της είναι αρκετά καλή και βγάζει μια-μιάμιση περίπου μέρα. Καλές κάμερες, αρκετά καλό στο browsing. Όμορφο λεπτό design καλούτσικη ανάλυση θα μπορούσε να είναι Full HD, καλο ηχειο δυνατό. Δεν έχει backlight στα κουμπιά αριστερά και δεξιά αλλά δεν πειράζει και τόσο. Είναι γενικά ωραίο κινητάκι το προτείνω για όσους θέλουν ως 150 ευρώ.",
      "rating": 5,
      "created_at": "2017-05-05T13:07:45+03:00",
      "demoted": false,
      "votes_count": 0,
      "helpful_votes_count": 0,
      "sentiments": {
        "positive": [
          "Ποιότητα κλήσης",
          "Φωτογραφίες",
          "Καταγραφή Video",
          "Μουσική",
          "GPS",
          "Ταχύτητα",
          "Σχέση ποιότητας τιμής",
          "Ανάλυση οθόνης"
        ]
      }
    },
    {
      "id": 173081,
      "user_id": 285006,
      "review": "Αγόρασα το κινητό πριν ακριβός 2 μήνες η άποψη μου γι'αυτό το κινητό είναι ότι εάν θέλετε να πάτε σε ένα κινητό επώνυμο σε αυτή την κατηγορία τιμής είναι πάρα πολύ κάλο για τα λεφτά του\r\nΤα θετικά του είναι:\r\n1. Έχει πάρα πολύ ωραία χρώματα η οθόνη πράγμα που αρέσει στο μάτι και δίνει μια άλλη όψη στο κινητό\r\n2. Η κάμερα του για αυτά τα λεφτά είναι πολύ καλή άλλα δεν συγκρίνεται με ναυαρχίδες τύπου (LG G5,Samsung Galaxy S7-S8)\r\n3. Το μικρόφωνο πολύ καθαρό και μια χαρά για τις κλήσεις\r\n4. Το κινητό δεν μου έχει κολλήσει πουθενά είναι αρκετά γρήγορο\r\n5. Η μπαταριά του μου κρατάει 1,5-2 μέρες με απλή χρήση (δηλαδή μόνο messenger και facebook) και 1 μέρα με βάρια χρήση \r\nΤα αρνητικά του είναι:\r\n1. Αυτό που με δυσαρέστησε περισσότερο έμενα είναι ότι θέλει περίπου 1,5-2 ώρες φόρτιση που εν έτη 2017 είναι κάπως άλλα εντάξει αυτά είναι προτιμήσεις\r\n2. Για έμενα το λιγότερο αρνητικό είναι το ηχείο το οποίο δεν είναι πάρα πολύ δυνατό ώστε να ακούς μουσική όταν έχει πολυκοσμία άλλα μιας και εγώ είμαι άνθρωπος των ακουστικών για να ακούω μουσική δεν με πείραξε τόσο \r\n\r\nΓενικά σαν συσκευή πάρα πολύ καλή για τα λεφτά της άλλα εάν κάποιος δίνει πάρα πολύ βάση στο πόσο γρήγορα θέλει να φορτίσει το κινητό του και αν θα έχει δυνατοί ηχείο η θα έλεγα να δει και κάποιο άλλο.. Το πρωτινό ανεπιφύλακτα",
      "rating": 4,
      "created_at": "2017-04-30T11:29:25+03:00",
      "demoted": false,
      "votes_count": 7,
      "helpful_votes_count": 5,
      "sentiments": {
        "positive": [
          "Ποιότητα κλήσης",
          "Φωτογραφίες",
          "Καταγραφή Video",
          "GPS",
          "Ταχύτητα",
          "Σχέση ποιότητας τιμής",
          "Ανάλυση οθόνης"
        ],
        "mediocre": [
          "Μουσική"
        ]
      }
    },
    {
      "id": 172872,
      "user_id": 69924,
      "review": "Χωρίς να είμαι ειδικός, συγκρίνοντας με ένα xperia που είχα για δυόμισι χρόνια πριν, ο ήχος στο ηχείο και στα ακουστικά είναι πολύ κατώτερος σε ποιότητα. Κατά τα άλλα είναι ένα καλό τηλέφωνο για την αξία του, οι κεραίες του κλειδώνουν γρήγορα τις συνδέσεις (wi-fi, GPS, Bluetooth, κ.λ.π.), χαμηλή τιμή sar (0.45 W/kg (head) και με μεγάλα πλεονεκτήματα την οθόνη και τα χρώματά του καθώς και το χρόνο αποφόρτισης της  μπαταρίας του.",
      "rating": 4,
      "created_at": "2017-04-28T23:18:32+03:00",
      "demoted": false,
      "votes_count": 3,
      "helpful_votes_count": 0,
      "sentiments": {
        "positive": [
          "Ποιότητα κλήσης",
          "Φωτογραφίες",
          "GPS",
          "Ταχύτητα",
          "Σχέση ποιότητας τιμής",
          "Ανάλυση οθόνης"
        ],
        "mediocre": [
          "Καταγραφή Video"
        ],
        "negative": [
          "Μουσική"
        ]
      }
    },
    {
      "id": 172379,
      "user_id": 550805,
      "review": "Ειναι το καλυτερο κινητο πραγματικα,γρηγορο,η μπαταρια κραταει,μεγαλη μνημη,υπεροχες καμερες,επισησ δεν κολλαει!!",
      "rating": 5,
      "created_at": "2017-04-26T15:16:20+03:00",
      "demoted": false,
      "votes_count": 3,
      "helpful_votes_count": 3,
      "sentiments": {
        "positive": [
          "Ποιότητα κλήσης",
          "Φωτογραφίες",
          "Καταγραφή Video",
          "Μουσική",
          "GPS",
          "Ταχύτητα",
          "Σχέση ποιότητας τιμής",
          "Ανάλυση οθόνης"
        ]
      }
    },
    {
      "id": 171116,
      "user_id": 673123,
      "review": "Το εχω περιπου ενα μηνα και δουλεύει άριστα δεν μου εχει κολλήσει ουτε μια φορα εχω κατεβάσει παρα πολλές εφορμογες  και ειναι τέλειο",
      "rating": 5,
      "created_at": "2017-04-21T12:28:45+03:00",
      "demoted": false,
      "votes_count": 5,
      "helpful_votes_count": 4,
      "sentiments": {
        "positive": [
          "Ποιότητα κλήσης",
          "Φωτογραφίες",
          "Μουσική",
          "Ταχύτητα",
          "Σχέση ποιότητας τιμής",
          "Ανάλυση οθόνης"
        ],
        "mediocre": [
          "Καταγραφή Video"
        ]
      }
    },
    {
      "id": 169195,
      "user_id": 674777,
      "review": "Το κινητό είναι απίστευτο για Low Budget μόλις στην τιμή των 150.\r\nΘετικά:\r\n+Η οθόνη έχει πολύ καλή ευκρίνεια με πολλά χρώματα\r\n+Η μπαταρία φοβερή αντέχει άνετα 1 μέρα με φουλ χρήση (WiFi,GPS,Facebook,Instagram,Games κλπ.)\r\n+Η πίσω κάμερα 13MP είναι φοβερή βγάζει τις φωτογραφίες με μεγάλη λεπτομέρεια και με καλή ανάλυση και έχει και πολλές λειτουργίες\r\n+Η μπροστινή κάμερα 5MP είναι ικανοποιητική.Πολύ σημαντική η παρουσία του Flash για νυκτερινές λήψεις\r\n+Καλός αποθηκευτικός χώρος στα  16GB θα χωρέσει πολλές εφαρμογές και φωτογραφίες.Με μια επέκταση με την χρήση SD γίνεται ακόμα καλύτερος.\r\n+Σχετικά δυνατό ηχείο (το περίμενα λίγο δυνατότερο)\r\n+Πολύ γρήγορο δεν κολλάει πουθενά σε οποιαδήποτε χρήση και αν του κάνετε.\r\n+Αδιάβροχο\r\nΑρνητικά:\r\n-Απαραίτητη η χρήση θήκης διότι το πίσω μέρος είναι λίγο εύθραυστο (καπάκι)\r\n-Περίμενα λίγο καλύτερο GPS,Καλή απόκριση τοποθεσίας,αλλά όχι τόσο ακριβές όσο θα έπρεπε\r\n\r\nΓενικά υπερισχύουν τα θετικά από τα αρνητικά είναι το καλύτερο κινητό στην κατηγορία των 100-200 ευρώ.\r\nΤο συνιστώ ανεπιφύλακτα!Δεν θα σας απογοητεύσει!",
      "rating": 5,
      "created_at": "2017-04-12T14:03:04+03:00",
      "demoted": false,
      "votes_count": 12,
      "helpful_votes_count": 11,
      "sentiments": {
        "positive": [
          "Ποιότητα κλήσης",
          "Φωτογραφίες",
          "Καταγραφή Video",
          "Μουσική",
          "GPS",
          "Ταχύτητα",
          "Σχέση ποιότητας τιμής",
          "Ανάλυση οθόνης"
        ]
      }
    },
    {
      "id": 168920,
      "user_id": 685838,
      "review": "Το τηλέφωνο είναι πολύ καλό!!! \nΘΕΤΙΚΑ: 1) Έχει καλή ανάλυση  (HD)\n                2) Η μπαταρία του είναι πολύ καλή  (3.100 mAh), θα σας έλεγα να κατεβάσετε την φωτεινότητα ας πούμε περίπου στο 30% γιατί έτσι κρατάει περισσότερο. \n               3) Η 13 mp κάμερα πίσω με το φλας κάνει πολύ καλά την δουλειά της καθώς έχει πολλές λειτουργίες ενώ η 5mp μπροστά είναι σούπερ με το φλας στο σκοτάδι αλλά και την μέρα  (χωρίς το φλας) \n               4) Android 6.0.1 Marshmallow τέλειο \n               5) Τετραπύρινος επεξεργαστής με 2GB Ram τρέχει τα πάντα. \n               6) Ο χώρος αποθήκευσης  πολύ καλός αλλά από τα 16GB, 10.60 GB είναι διαθέσιμα οπότε μια SD 32GB είναι μια χαρά. \n              7) 4G Δίκτυο\n\n ΑΡΝΗΤΙΚΑ:  1) Το ηχείο του θα μπορούσε να ήταν λίγο  \nπιο δυνατό. \n                        2) Δεν φωτίζονται τα κάτω πλήκτρα της συσκευής.\n                       3) Πίσω το καπάκι φαίνεται λίγο φτηνιάρικο και εύθραυστο, άρα με μια θήκη είναι τέλειο. \nΕγώ αυτό έχω κάνει με 3€ θήκη σιλικόνης, μπορεί να φαίνεται κοροϊδία αλλά εμένα με βοήθησε πάρα πολύ. \n4 φορές έχει πέσει και δεν έχει πάθει τίποτα (με θήκη), χωρίς θήκη την πατήσατε για τα καλά γιατί έχει μέταλλο και χαράζεται. \n\n\n\nΓενικά το προτείνω πολύ γιατί αξίζει στα 150.95€ (Για την ακρίβεια 142.48€), με ελάχιστες ατέλειες θα αποτελούσε επιλογή με κλειστά μάτια.....!!!!",
      "rating": 5,
      "created_at": "2017-04-11T12:01:21+03:00",
      "demoted": false,
      "votes_count": 10,
      "helpful_votes_count": 10,
      "sentiments": {
        "positive": [
          "Ποιότητα κλήσης",
          "Φωτογραφίες",
          "Καταγραφή Video",
          "Μουσική",
          "Ταχύτητα",
          "Σχέση ποιότητας τιμής",
          "Ανάλυση οθόνης"
        ]
      }
    },
    {
      "id": 168491,
      "user_id": 685110,
      "review": "Πολύ καλό κινητό, γρήγορο, βγάζει καλές φωτογραφίες κ.α. Το μόνο ελάττωμα αν και μικρό βρίσκεται στα ηχεία. Παρόλα αυτά το προτείνω ανεπιφύλακτα !!!",
      "rating": 4,
      "created_at": "2017-04-10T10:24:05+03:00",
      "demoted": false,
      "votes_count": 5,
      "helpful_votes_count": 4,
      "sentiments": {
        "positive": [
          "Ποιότητα κλήσης",
          "Φωτογραφίες",
          "GPS",
          "Ταχύτητα",
          "Σχέση ποιότητας τιμής",
          "Ανάλυση οθόνης"
        ],
        "mediocre": [
          "Καταγραφή Video",
          "Μουσική"
        ]
      }
    },
    {
      "id": 168129,
      "user_id": 654053,
      "review": "Το κινητο ειναι πολυ καλο για τα λεφτα του.. η μπαταρια κραταει σχεδον 3 μερες με wifi ανοιχτο ..βγαζει πολυ ωραιες φωτογραφιες..το εχω ενα τριμηνο και δεν κολλαει καθολου..και η εσωτερικη καμερα με το φλας απιστευτη",
      "rating": 5,
      "created_at": "2017-04-07T22:56:39+03:00",
      "demoted": false,
      "votes_count": 5,
      "helpful_votes_count": 2,
      "sentiments": {
        "positive": [
          "Ποιότητα κλήσης",
          "Φωτογραφίες",
          "Καταγραφή Video",
          "Μουσική",
          "GPS",
          "Ταχύτητα",
          "Σχέση ποιότητας τιμής",
          "Ανάλυση οθόνης"
        ]
      }
    },
    {
      "id": 167498,
      "user_id": 677810,
      "review": "Πηρα το συγκεκριμενο κινητο μετα απο πολυ ψαξιμο και μπορω να πω ειμαι παραπανω απο ικανοποιημενος γιατι, ειναι τετραπυρηνο και δεν κολλαει καθολου (μιλαω σαν gamer), εχει ΔΥΝΑΤΗ μπαταρια 3100 mah που επιτρεπει μεγαλη χρηση κατα την διαρκεια της ημερας χωρις αγχος, πολυ καλη καμερα με Flash, αρκετα δυνατο ηχειο (βλεπω αρκετα αρνητικα σχολεια ως προς το ηχειο του και μπορω να σας πω οτι ειναι αξιοπρεπεστατο για κινητο 150 ευρω τωρα αν θελουν να κανουν συναυλιες με το κινητο να κοιταξουν για 400 ευρω και πανω).\r\n\r\nΣε γενικες γραμμες ενα ΠΟΛΥ \"δυνατο\" κινητο για ατομα με Low Budget που θελουν απλα να κανουν την δουλεια τους και να εχουν και καποιες εξτρα λειτουργιες Facebook, instagram, games κλπ κλπ το συνιστω ανεπιφυλακτα Value for money.",
      "rating": 5,
      "created_at": "2017-04-04T04:15:19+03:00",
      "demoted": false,
      "votes_count": 15,
      "helpful_votes_count": 14,
      "sentiments": {
        "positive": [
          "Ποιότητα κλήσης",
          "Φωτογραφίες",
          "Μουσική",
          "Ταχύτητα",
          "Σχέση ποιότητας τιμής",
          "Ανάλυση οθόνης"
        ],
        "mediocre": [
          "Καταγραφή Video"
        ]
      }
    },
    {
      "id": 166925,
      "user_id": 531946,
      "review": "",
      "rating": 2,
      "created_at": "2017-03-31T23:34:00+03:00",
      "demoted": false,
      "votes_count": 3,
      "helpful_votes_count": 2,
      "sentiments": {
        "positive": [
          "Ποιότητα κλήσης",
          "Φωτογραφίες",
          "Ανάλυση οθόνης"
        ],
        "mediocre": [
          "Καταγραφή Video",
          "Μουσική",
          "GPS"
        ],
        "negative": [
          "Ταχύτητα",
          "Σχέση ποιότητας τιμής"
        ]
      }
    },
    {
      "id": 165279,
      "user_id": 533477,
      "review": "το εχω εναν μηνα ! ειναι τελειο !! λατρευω την καμερα του ! ειναι γρηγορο δεν μου εχει κολλσησει ποτε εως τωρα .. σημερα κανει αναβαθμιση ελπιζω να μην γινει χαλια ! σιγουρα ειναι πολυ καλο για τα λεφτα που εδωσα μιας και ο αντρας μου εχει ιδιας τιμης κινητο και  ειναι μακραν χειροτερο ! βασικα το αγαπαω ! εχει πολυ ομορφη εμφανιση μοιαζει ακριβο με τρομερη καμερα και δεν κολλαει με τιποτα !!!",
      "rating": 5,
      "created_at": "2017-03-23T21:29:17+02:00",
      "demoted": false,
      "votes_count": 9,
      "helpful_votes_count": 3,
      "sentiments": {
        "positive": [
          "Ποιότητα κλήσης",
          "Φωτογραφίες",
          "Μουσική",
          "Ταχύτητα",
          "Σχέση ποιότητας τιμής",
          "Ανάλυση οθόνης"
        ],
        "mediocre": [
          "Καταγραφή Video"
        ]
      }
    },
    {
      "id": 165225,
      "user_id": 673760,
      "review": "Το κινητο ειναι πολυ καλο σπάνια μπορει να συναντήσετε καποιο κολημα αλλα αν του κανετε μια επαναφορά μπορει να ξανασυναντησετε για μηνες. Η μπαταρία ειναι πολυ καλη για την ακρίβεια στο δικο μ j52016 η μπαταρία κραταει γυρω στις 5 ωρες με ανοιχτο wi fi(5 ωρες με συνεχόμενη χρηση ουτε για κατουριμα που λεμε μεταφορικά) ο φορτιστής ειναι λιγο Άργος αλλα δεν με πειραζει η φωτογραφιες αρκετα καλες μπορω να πω ειδικα η μπροστινή που εχει και φλας",
      "rating": 5,
      "created_at": "2017-03-23T16:31:02+02:00",
      "demoted": false,
      "votes_count": 2,
      "helpful_votes_count": 0,
      "sentiments": {
        "positive": [
          "Ποιότητα κλήσης",
          "Φωτογραφίες",
          "GPS",
          "Ταχύτητα",
          "Σχέση ποιότητας τιμής",
          "Ανάλυση οθόνης"
        ],
        "mediocre": [
          "Καταγραφή Video",
          "Μουσική"
        ]
      }
    },
    {
      "id": 164929,
      "user_id": 672699,
      "review": "Πηρα το συγκεκριμενο κινητο με σκοπο να το εχω στην δουλεια μου και μονο εκει,μιας και ειμαι κατοχος S7,ομως τελικα αποδειχτηκε οτι το κιν αυτο ειναι πολυ τιμιο και καλο για τα λεφτα του.Μαλιστα η μπαταρια του ειναι σκυλι κανονικο",
      "rating": 4,
      "created_at": "2017-03-21T20:41:01+02:00",
      "demoted": false,
      "votes_count": 5,
      "helpful_votes_count": 3,
      "sentiments": {
        "positive": [
          "Ποιότητα κλήσης",
          "Φωτογραφίες",
          "Μουσική",
          "GPS",
          "Ταχύτητα",
          "Σχέση ποιότητας τιμής",
          "Ανάλυση οθόνης"
        ],
        "mediocre": [
          "Καταγραφή Video"
        ]
      }
    },
    {
      "id": 163963,
      "user_id": 460088,
      "review": "το έχω εδώ και 2 βδομάδες 04/03/2017\r\nΜέχρι στιγμής δε μου έχει εμφανίσει κάποιο πρόβλημα. Η ανάλυση της οθόνης είναι πολύ καλή, βγάζει καλές φωτογραφίες  και η μπαταρία κρατάει γύρω στις 3-4 μέρες με ανοιχτό το wifi όλη μέρα (τη νύχτα το απενεργοποιώ). Οι εφαρμογές που χρησιμοποιώ (messenger, , gmail, youtube) δεν παρουσιάζουν κάποιο κόλλημα.\r\nΕίναι πολύ καλο κινητό . \r\nότι καλύτερο Αξίζει τα χρήματα του (το έχω αγοράσει στα 160 ε. )",
      "rating": 5,
      "created_at": "2017-03-16T20:26:56+02:00",
      "demoted": false,
      "votes_count": 1,
      "helpful_votes_count": 1,
      "sentiments": {
        "positive": [
          "Ποιότητα κλήσης",
          "Φωτογραφίες",
          "Καταγραφή Video",
          "Μουσική",
          "GPS",
          "Ταχύτητα",
          "Σχέση ποιότητας τιμής",
          "Ανάλυση οθόνης"
        ]
      }
    },
    {
      "id": 161610,
      "user_id": 661295,
      "review": "Το κινητο δεν αξιζει καθολου περα απο την μπαταρια του. Κολλαει αμεσως, λιγο αλλα κολλαει. Το αγοραζεις και μεσα σε μια βδομαδα τρωει κολληματα και ξενερωνεις. Δεν εχει λυχνιες για μνμ, κλησεις, ειδοποιησεις. Τα ''πληκτρα'' δεξια και αριστερα απο το μεγαλο κουμπι δεν εχουν επισης φωτισμο. Ελαχιστες δυνατοτητες, χαμηλο ηχειο επισης. Οταν δεχεσαι κληση κανει 2-3 δευτερολεπτα μεχρι να εμφανισει ποιος σε παιρνει, μεχρι τοτε απλα ακουγεται ο ηχος. Φορτιζει παρα πολυ αργα. Επισης τα ακουστηκα του ειναι τραγικα. Σε σακατευουν το αυτι και δεν ακουγονται κιολας. Το μοναδικο θετικο το ντιζαϊν του και η μπαταρια. Κατα τα αλλα το κινητο εχει αξια για 50 ευρω.",
      "rating": 2,
      "created_at": "2017-03-07T18:30:45+02:00",
      "demoted": false,
      "votes_count": 38,
      "helpful_votes_count": 13,
      "sentiments": {
        "mediocre": [
          "Ποιότητα κλήσης",
          "Καταγραφή Video",
          "GPS"
        ],
        "positive": [
          "Φωτογραφίες",
          "Σχέση ποιότητας τιμής",
          "Ανάλυση οθόνης"
        ],
        "negative": [
          "Μουσική",
          "Ταχύτητα"
        ]
      }
    },
    {
      "id": 161181,
      "user_id": 623177,
      "review": "Είναι πολύ καλο κινητό μόνο που ελάχιστες φορές κολλάει και το ηχείο δεν είναι τόσο δυνατό. Κατά τα άλλα είναι άριστο.",
      "rating": 4,
      "created_at": "2017-03-06T16:38:15+02:00",
      "demoted": false,
      "votes_count": 7,
      "helpful_votes_count": 0,
      "sentiments": {
        "positive": [
          "Ποιότητα κλήσης",
          "Φωτογραφίες",
          "GPS",
          "Ταχύτητα",
          "Σχέση ποιότητας τιμής",
          "Ανάλυση οθόνης"
        ],
        "mediocre": [
          "Καταγραφή Video",
          "Μουσική"
        ]
      }
    },
    {
      "id": 160574,
      "user_id": 660532,
      "review": "Πολυ καλο κινητο ειδικα για τα χρηματα που κοστιζει.... δεν κολλαει καθολου, εχει φοβερη καμερα και οθονη και παει σφαιρα......",
      "rating": 5,
      "created_at": "2017-03-03T10:58:02+02:00",
      "demoted": false,
      "votes_count": 7,
      "helpful_votes_count": 3,
      "sentiments": {
        "positive": [
          "Ποιότητα κλήσης",
          "Φωτογραφίες",
          "Καταγραφή Video",
          "Μουσική",
          "GPS",
          "Ταχύτητα",
          "Σχέση ποιότητας τιμής",
          "Ανάλυση οθόνης"
        ]
      }
    },
    {
      "id": 159472,
      "user_id": 571303,
      "review": "Ό,τι καλύτερο μέχρι τώρα. Φυσικά δεν αξίζει τα λεφτά του έπρεπε να αξιζει πολύ περισσοτερα... Πολύ ωραίες φωτογραφίες, τέλεια ανάλυση, οι κλήσεις είναι πολύ καλές, η μπαταρία κρατάει περίπου δύο ημέρες και δεν μου έχει κολλήσει καθόλου μέχρι τώρα και το έχω 2 μήνες!! !",
      "rating": 5,
      "created_at": "2017-02-25T18:02:14+02:00",
      "demoted": false,
      "votes_count": 10,
      "helpful_votes_count": 7,
      "sentiments": {
        "positive": [
          "Ποιότητα κλήσης",
          "Φωτογραφίες",
          "Καταγραφή Video",
          "GPS",
          "Ταχύτητα",
          "Ανάλυση οθόνης"
        ],
        "mediocre": [
          "Μουσική",
          "Σχέση ποιότητας τιμής"
        ]
      }
    },
    {
      "id": 159452,
      "user_id": 617085,
      "review": "Το εχω εδω και 1 εβδομαδα.Απιστευτο κινητο.Αξιζει τα χρηματα του.Εχει πολυ καλα ηχεια πολυ καλη αναλυση και η μπαταρια κραταει περιπου 3 μερες με wifi.Επισης η φωτογραφιες τις ειναι ΤΕΛΕΙΕΣ!Το συνιστηνω χωρις δευτερη κουβεντα!",
      "rating": 5,
      "created_at": "2017-02-25T14:00:16+02:00",
      "demoted": false,
      "votes_count": 11,
      "helpful_votes_count": 7,
      "sentiments": {
        "positive": [
          "Ποιότητα κλήσης",
          "Φωτογραφίες",
          "Καταγραφή Video",
          "Μουσική",
          "GPS",
          "Ταχύτητα",
          "Σχέση ποιότητας τιμής",
          "Ανάλυση οθόνης"
        ]
      }
    },
    {
      "id": 158653,
      "user_id": 600151,
      "review": "Ένα φοβερό κινητό για τα λεφτά του...Προσφέρει πάρα πολλά πράγματα για την τιμή του..Κομψό και όμορφα σχεδιασμένο με καλό ηχείο και ανάλυση οθόνης και δυο καταπληκτικές κάμερες (ειδικά η μπροστινή). Ένα πολύ καλό δώρο για παιδιά - συντρόφους κτλ. που θα το ευχαριστηθούν σίγουρα και δεν θα ξοδέψετε και μια περιουσία! Σαν πρώην κάτοχος του Samsung galaxy j5 2015 θα ήθελα να σας ενημερώσω ότι η νέα συσκευή έκανε αρκετά βήματα προόδου σε σχέση με αυτήν του 2015.Και το μεγαλύτερο βήμα από όλα είναι η αύξηση της μνήμης από 8gb se 16gb! Σαν μόνο αρνητικό σε σχέση με τη συσκευή του 2015 θα μπορούσα να αναφέρω μόνο τη διάρκεια της μπαταρίας η οποία είναι κατά ελάχιστο μικρότερη από το προηγούμενο!",
      "rating": 5,
      "created_at": "2017-02-21T13:22:48+02:00",
      "demoted": false,
      "votes_count": 11,
      "helpful_votes_count": 10,
      "sentiments": {
        "positive": [
          "Ποιότητα κλήσης",
          "Φωτογραφίες",
          "Καταγραφή Video",
          "Μουσική",
          "GPS",
          "Ταχύτητα",
          "Σχέση ποιότητας τιμής",
          "Ανάλυση οθόνης"
        ]
      }
    },
    {
      "id": 158538,
      "user_id": 138571,
      "review": "Το κινητό το έχω από τα μέσα Δεκέμβρη. Μέχρι στιγμής δε μου έχει εμφανίσει κάποιο πρόβλημα. Η ανάλυση της οθόνης είναι πολύ καλή, βγάζει καλές φωτογραφίες (αν και δε το χρησιμοποιώ πολύ για φωτογραφίες) και η μπαταρία κρατάει γύρω στις 3-4 μέρες με ανοιχτό το wifi όλη μέρα (τη νύχτα το απενεργοποιώ). Οι εφαρμογές που χρησιμοποιώ (messenger, spotify, skype, gmail, youtube) δεν παρουσιάζουν κάποιο κόλλημα. Το μόνο αρνητικό όπως και σε όλα τα smartphones είναι ότι πολλές εφαρμογές που έρχονται εγκατεστημένες στο κινητό, δε μπορείς να τις διαγράψεις αλλά ούτε και να τις απενεργοποιήσεις.",
      "rating": 5,
      "created_at": "2017-02-20T22:36:33+02:00",
      "demoted": false,
      "votes_count": 9,
      "helpful_votes_count": 8,
      "sentiments": {
        "positive": [
          "Ποιότητα κλήσης",
          "Φωτογραφίες",
          "Καταγραφή Video",
          "Μουσική",
          "Ταχύτητα",
          "Σχέση ποιότητας τιμής",
          "Ανάλυση οθόνης"
        ]
      }
    },
    {
      "id": 158458,
      "user_id": 47079,
      "review": "Αξιζει τα λεφτα του...Παρα πολυ καλη σχεση τιμηs- αξιαs...δεν υπαρχει κατι καλυτερο σε αυτη τη τιμη...προτεινεται...",
      "rating": 4,
      "created_at": "2017-02-20T18:17:57+02:00",
      "demoted": false,
      "votes_count": 6,
      "helpful_votes_count": 3,
      "sentiments": {
        "positive": [
          "Ποιότητα κλήσης",
          "Φωτογραφίες",
          "Καταγραφή Video",
          "GPS",
          "Ταχύτητα",
          "Σχέση ποιότητας τιμής",
          "Ανάλυση οθόνης"
        ],
        "mediocre": [
          "Μουσική"
        ]
      }
    }
  ],
  "meta": {
    "pagination": {
      "total_results": 324,
      "total_pages": 13,
      "page": 1,
      "per": 25
    }
  }
}